lab-2/source-sc/sccpu_sim.vcd
$date
	Thu Apr 23 19:55:23 2026
$end
$version
	Icarus Verilog
$end
$timescale
	1ns
$end
$scope module sccomp_tb $end
$var wire 32 ! reg_data [31:0] $end
$var reg 1 " clk $end
$var reg 5 # reg_sel [4:0] $end
$var reg 1 $ rstn $end
$scope module sccomp $end
$var wire 1 " clk $end
$var wire 5 % reg_sel [4:0] $end
$var wire 1 & reset $end
$var wire 1 $ rstn $end
$var wire 32 ' reg_data [31:0] $end
$var wire 32 ( instr [31:0] $end
$var wire 32 ) dm_dout [31:0] $end
$var wire 32 * dm_din [31:0] $end
$var wire 32 + dm_addr [31:0] $end
$var wire 32 , PC [31:0] $end
$var wire 1 - MemWrite $end
$scope module U_DM $end
$var wire 1 " clk $end
$var wire 32 . din [31:0] $end
$var wire 32 / addr [31:0] $end
$var wire 1 - DMWr $end
$var reg 32 0 dout [31:0] $end
$upscope $end
$scope module U_SCCPU $end
$var wire 32 1 Addr_out [31:0] $end
$var wire 32 2 Data_in [31:0] $end
$var wire 32 3 Data_out [31:0] $end
$var wire 1 " clk $end
$var wire 5 4 reg_sel [4:0] $end
$var wire 1 & reset $end
$var wire 20 5 uimm [19:0] $end
$var wire 12 6 simm [11:0] $end
$var wire 5 7 rs2 [4:0] $end
$var wire 5 8 rs1 [4:0] $end
$var wire 32 9 reg_data [31:0] $end
$var wire 5 : rd [4:0] $end
$var wire 1 - mem_w $end
$var wire 20 ; jimm [19:0] $end
$var wire 32 < inst_in [31:0] $end
$var wire 32 = immout [31:0] $end
$var wire 12 > iimm [11:0] $end
$var wire 12 ? bimm [11:0] $end
$var wire 32 @ aluout [31:0] $end
$var wire 1 A Zero $end
$var wire 2 B WDSel [1:0] $end
$var wire 1 C RegWrite $end
$var wire 32 D RD2 [31:0] $end
$var wire 32 E RD1 [31:0] $end
$var wire 32 F PC_out [31:0] $end
$var wire 7 G Op [6:0] $end
$var wire 3 H NPCOp [2:0] $end
$var wire 32 I NPC [31:0] $end
$var wire 12 J Imm12 [11:0] $end
$var wire 20 K IMM [19:0] $end
$var wire 7 L Funct7 [6:0] $end
$var wire 3 M Funct3 [2:0] $end
$var wire 6 N EXTOp [5:0] $end
$var wire 32 O B [31:0] $end
$var wire 1 P ALUSrc $end
$var wire 5 Q ALUOp [4:0] $end
$var reg 32 R WD [31:0] $end
$scope module U_EXT $end
$var wire 12 S bimm [11:0] $end
$var wire 12 T iimm [11:0] $end
$var wire 20 U jimm [19:0] $end
$var wire 12 V simm [11:0] $end
$var wire 20 W uimm [19:0] $end
$var wire 6 X EXTOp [5:0] $end
$var reg 32 Y immout [31:0] $end
$upscope $end
$scope module U_NPC $end
$var wire 32 Z IMM [31:0] $end
$var wire 32 [ PCPLUS4 [31:0] $end
$var wire 32 \ PC [31:0] $end
$var wire 3 ] NPCOp [2:0] $end
$var reg 32 ^ NPC [31:0] $end
$upscope $end
$scope module U_PC $end
$var wire 32 _ NPC [31:0] $end
$var wire 1 " clk $end
$var wire 1 & rst $end
$var reg 32 ` PC [31:0] $end
$upscope $end
$scope module U_RF $end
$var wire 5 a A1 [4:0] $end
$var wire 5 b A2 [4:0] $end
$var wire 5 c A3 [4:0] $end
$var wire 32 d WD [31:0] $end
$var wire 1 " clk $end
$var wire 5 e reg_sel [4:0] $end
$var wire 1 & rst $end
$var wire 32 f reg_data [31:0] $end
$var wire 1 C RFWr $end
$var wire 32 g RD2 [31:0] $end
$var wire 32 h RD1 [31:0] $end
$var integer 32 i i [31:0] $end
$upscope $end
$scope module U_alu $end
$var wire 32 j A [31:0] $end
$var wire 32 k B [31:0] $end
$var wire 1 A Zero $end
$var wire 5 l ALUOp [4:0] $end
$var reg 32 m C [31:0] $end
$upscope $end
$scope module U_ctrl $end
$var wire 1 P ALUSrc $end
$var wire 3 n Funct3 [2:0] $end
$var wire 7 o Funct7 [6:0] $end
$var wire 1 p LUI $end
$var wire 1 - MemWrite $end
$var wire 7 q Op [6:0] $end
$var wire 1 C RegWrite $end
$var wire 1 A Zero $end
$var wire 1 r i_add $end
$var wire 1 s i_addi $end
$var wire 1 t i_and $end
$var wire 1 u i_beq $end
$var wire 1 v i_jal $end
$var wire 1 w i_lw $end
$var wire 1 x i_or $end
$var wire 1 y i_sll $end
$var wire 1 z i_sra $end
$var wire 1 { i_srl $end
$var wire 1 | i_sub $end
$var wire 1 } i_sw $end
$var wire 1 ~ i_xor $end
$var wire 1 !" itype_l $end
$var wire 1 "" itype_r $end
$var wire 1 #" rtype $end
$var wire 1 $" sbtype $end
$var wire 1 %" stype $end
$var wire 2 &" WDSel [1:0] $end
$var wire 3 '" NPCOp [2:0] $end
$var wire 6 (" EXTOp [5:0] $end
$var wire 5 )" ALUOp [4:0] $end
$upscope $end
$upscope $end
$scope module U_imem $end
$var wire 30 *" addr [31:2] $end
$var wire 32 +" dout [31:0] $end
$upscope $end
$upscope $end
$upscope $end
$enddefinitions $end
$comment Show the parameter values. $end
$dumpall
$end
#0
$dumpvars
b10010001101000101001010110111 +"
b0 *"
b1 )"
b10 ("
b0 '"
b0 &"
0%"
0$"
0#"
0""
0!"
0~
0}
0|
0{
0z
0y
0x
0w
0v
0u
0t
0s
0r
b110111 q
1p
b1001 o
b101 n
b10010001101000101000000000000 m
b1 l
b10010001101000101000000000000 k
b0 j
b100000 i
b0 h
b0 g
bx f
bx e
b10010001101000101000000000000 d
b101 c
b11 b
b1000 a
b0 `
b100 _
b100 ^
b0 ]
b0 \
b100 [
b10010001101000101000000000000 Z
b10010001101000101000000000000 Y
b10 X
b10010001101000101 W
b100100101 V
b100010110010010001 U
b100100011 T
b10010010010 S
b10010001101000101000000000000 R
b1 Q
1P
b10010001101000101000000000000 O
b10 N
b101 M
b1001 L
b10010001101000101 K
b100100011 J
b100 I
b0 H
b110111 G
b0 F
b0 E
b0 D
1C
b0 B
0A
b10010001101000101000000000000 @
b10010010010 ?
b100100011 >
b10010001101000101000000000000 =
b10010001101000101001010110111 <
b100010110010010001 ;
b101 :
bx 9
b1000 8
b11 7
b100100101 6
b10010001101000101 5
bx 4
b0 3
bx 2
b10010001101000101000000000000 1
bx 0
b10010001101000101000000000000 /
b0 .
0-
b0 ,
b10010001101000101000000000000 +
b0 *
bx )
b10010001101000101001010110111 (
bx '
1&
bx %
1$
bx #
1"
bx !
$end
#5
0"
#10
b11111111111111111111000000000000 R
b11111111111111111111000000000000 d
b11111111111111111111000000000000 +
b11111111111111111111000000000000 /
b11111111111111111111000000000000 1
b11111111111111111111000000000000 @
b11111111111111111111000000000000 m
b11111111111111111111000000000000 O
b11111111111111111111000000000000 k
b11111111111111111111000000000000 =
b11111111111111111111000000000000 Y
b11111111111111111111000000000000 Z
b11111111111111111111 K
b111111111111 J
b110 :
b110 c
b11111 7
b11111 b
b11111 8
b11111 a
b111 M
b111 n
b1111111 L
b1111111 o
b11111111111111111111 ;
b11111111111111111111 U
b101111110011 ?
b101111110011 S
b11111111111111111111 5
b11111111111111111111 W
b111111100110 6
b111111100110 V
b111111111111 >
b111111111111 T
b11111111111111111111001100110111 (
b11111111111111111111001100110111 <
b11111111111111111111001100110111 +"
b1 *"
b1000 I
b1000 ^
b1000 _
b1000 [
b100 ,
b100 F
b100 \
b100 `
b0 !
b0 '
b0 9
b0 f
1"
b111 #
b111 %
b111 4
b111 e
0&
0$
#15
0"
#20
b100 R
b100 d
b100 =
b100 Y
b100 Z
0r
1s
0A
b100 +
b100 /
b100 1
b100 @
b100 m
b11 Q
b11 l
b11 )"
b100 O
b100 k
1""
1P
1C
0#"
b10000 N
b10000 X
b10000 ("
0p
b10000000000 K
b100 J
b1100 :
b1100 c
b100 7
b100 b
b0 8
b0 a
b0 M
b0 n
b0 L
b0 o
b10011 G
b10011 q
b10 ;
b10 U
b110 ?
b110 S
b10000000000 5
b10000000000 W
b1100 6
b1100 V
b100 >
b100 T
b10000000000011000010011 (
b10000000000011000010011 <
b10000000000011000010011 +"
b10 *"
b1100 I
b1100 ^
b1100 _
b1100 [
b1000 ,
b1000 F
b1000 \
b1000 `
1"
#25
0"
#30
b0 R
b0 d
1A
b0 +
b0 /
b0 1
b0 @
b0 m
b0 O
b0 k
b0 =
b0 Y
b0 Z
b0 K
b0 J
b0 :
b0 c
b0 7
b0 b
b0 ;
b0 U
b0 ?
b0 S
b0 5
b0 W
b0 6
b0 V
b0 >
b0 T
b10011 (
b10011 <
b10011 +"
b11 *"
b10000 I
b10000 ^
b10000 _
b10000 [
b1100 ,
b1100 F
b1100 \
b1100 `
1"
#35
0"
#40
b100 *"
b10100 I
b10100 ^
b10100 _
b10100 [
b10000 ,
b10000 F
b10000 \
b10000 `
1"
#45
0"
#50
b10010001101000100000000000000 R
b10010001101000100000000000000 d
b0 =
b0 Y
b0 Z
1r
b11 Q
b11 l
b11 )"
b0 N
b0 X
b0 ("
b11111111111111111111000000000000 O
b11111111111111111111000000000000 k
0s
0P
0""
1#"
0A
b10010001101000100000000000000 +
b10010001101000100000000000000 /
b10010001101000100000000000000 1
b10010001101000100000000000000 @
b10010001101000100000000000000 m
b11111111111111111111000000000000 *
b11111111111111111111000000000000 .
b11111111111111111111000000000000 3
b11111111111111111111000000000000 D
b11111111111111111111000000000000 g
b10010001101000101000000000000 E
b10010001101000101000000000000 h
b10010001101000101000000000000 j
b11000101000 K
b110 J
b111 :
b111 c
b110 7
b110 b
b101 8
b101 a
b110011 G
b110011 q
b10100000000000011 ;
b10100000000000011 U
b10000000011 ?
b10000000011 S
b11000101000 5
b11000101000 W
b111 6
b111 V
b110 >
b110 T
b11000101000001110110011 (
b11000101000001110110011 <
b11000101000001110110011 +"
b101 *"
b11000 I
b11000 ^
b11000 _
b11000 [
b10100 ,
b10100 F
b10100 \
b10100 `
1"
#55
0"
#60
b10010001101000110000000000000 R
b10010001101000110000000000000 d
b10010001101000110000000000000 +
b10010001101000110000000000000 /
b10010001101000110000000000000 1
b10010001101000110000000000000 @
b10010001101000110000000000000 m
b100 Q
b100 l
b100 )"
0r
1|
b1000000011000101000 K
b10000000110 J
b1000 :
b1000 c
b100000 L
b100000 o
b10100001000000011 ;
b10100001000000011 U
b1000000100 ?
b1000000100 S
b1000000011000101000 5
b1000000011000101000 W
b10000001000 6
b10000001000 V
b10000000110 >
b10000000110 T
b1000000011000101000010000110011 (
b1000000011000101000010000110011 <
b1000000011000101000010000110011 +"
b110 *"
b11100 I
b11100 ^
b11100 _
b10010001101000100000000000000 !
b10010001101000100000000000000 '
b10010001101000100000000000000 9
b10010001101000100000000000000 f
b11100 [
b11000 ,
b11000 F
b11000 \
b11000 `
1"
#65
0"
#70
b11101101110010111010000000000000 R
b11101101110010111010000000000000 d
1~
b11101101110010111010000000000000 +
b11101101110010111010000000000000 /
b11101101110010111010000000000000 1
b11101101110010111010000000000000 @
b11101101110010111010000000000000 m
b1100 Q
b1100 l
b1100 )"
0|
b11000101100 K
b110 J
b1001 :
b1001 c
b100 M
b100 n
b0 L
b0 o
b10110000000000011 ;
b10110000000000011 U
b10000000100 ?
b10000000100 S
b11000101100 5
b11000101100 W
b1001 6
b1001 V
b110 >
b110 T
b11000101100010010110011 (
b11000101100010010110011 <
b11000101100010010110011 +"
b111 *"
b100000 I
b100000 ^
b100000 _
b100000 [
b11100 ,
b11100 F
b11100 \
b11100 `
1"
#75
0"
#80
b11111111111111111111000000000000 R
b11111111111111111111000000000000 d
b11111111111111111111000000000000 +
b11111111111111111111000000000000 /
b11111111111111111111000000000000 1
b11111111111111111111000000000000 @
b11111111111111111111000000000000 m
b1101 Q
b1101 l
b1101 )"
0~
1x
b11000101110 K
b1010 :
b1010 c
b110 M
b110 n
b10111000000000011 ;
b10111000000000011 U
b101 ?
b101 S
b11000101110 5
b11000101110 W
b1010 6
b1010 V
b11000101110010100110011 (
b11000101110010100110011 <
b11000101110010100110011 +"
b1000 *"
b100100 I
b100100 ^
b100100 _
b100100 [
b100000 ,
b100000 F
b100000 \
b100000 `
1"
#85
0"
#90
b10010001101000101000000000000 R
b10010001101000101000000000000 d
0A
b10010001101000101000000000000 +
b10010001101000101000000000000 /
b10010001101000101000000000000 1
b10010001101000101000000000000 @
b10010001101000101000000000000 m
b1110 Q
b1110 l
b1110 )"
0x
1t
b11000101111 K
b1011 :
b1011 c
b111 M
b111 n
b10111100000000011 ;
b10111100000000011 U
b10000000101 ?
b10000000101 S
b11000101111 5
b11000101111 W
b1011 6
b1011 V
b11000101111010110110011 (
b11000101111010110110011 <
b11000101111010110110011 +"
b1001 *"
b101000 I
b101000 ^
b101000 _
b101000 [
b100100 ,
b100100 F
b100100 \
b100100 `
1"
#95
0"
#100
b1111111111111111111100000000 R
b1111111111111111111100000000 d
b10000 Q
b10000 l
b10000 )"
1{
0A
0t
b100 O
b100 k
b1111111111111111111100000000 +
b1111111111111111111100000000 /
b1111111111111111111100000000 1
b1111111111111111111100000000 @
b1111111111111111111100000000 m
b100 *
b100 .
b100 3
b100 D
b100 g
b11111111111111111111000000000000 E
b11111111111111111111000000000000 h
b11111111111111111111000000000000 j
b110000110101 K
b1100 J
b1101 :
b1101 c
b1100 7
b1100 b
b110 8
b110 a
b101 M
b101 n
b11010100000000110 ;
b11010100000000110 U
b10000000110 ?
b10000000110 S
b110000110101 5
b110000110101 W
b1101 6
b1101 V
b1100 >
b1100 T
b110000110101011010110011 (
b110000110101011010110011 <
b110000110101011010110011 +"
b1010 *"
b101100 I
b101100 ^
b101100 _
b101100 [
b101000 ,
b101000 F
b101000 \
b101000 `
1"
#105
0"
#110
b11111111111111111111111100000000 R
b11111111111111111111111100000000 d
b11111111111111111111111100000000 +
b11111111111111111111111100000000 /
b11111111111111111111111100000000 1
b11111111111111111111111100000000 @
b11111111111111111111111100000000 m
b10001 Q
b10001 l
b10001 )"
0{
1z
b1000000110000110101 K
b10000001100 J
b1110 :
b1110 c
b100000 L
b100000 o
b11010101000000110 ;
b11010101000000110 U
b1000000111 ?
b1000000111 S
b1000000110000110101 5
b1000000110000110101 W
b10000001110 6
b10000001110 V
b10000001100 >
b10000001100 T
b1000000110000110101011100110011 (
b1000000110000110101011100110011 <
b1000000110000110101011100110011 +"
b1011 *"
b110000 I
b110000 ^
b110000 _
b110000 [
b101100 ,
b101100 F
b101100 \
b101100 `
1"
#115
0"
#120
b100011010001010000000000000000 R
b100011010001010000000000000000 d
0A
1y
b1111 Q
b1111 l
b1111 )"
0z
b100011010001010000000000000000 +
b100011010001010000000000000000 /
b100011010001010000000000000000 1
b100011010001010000000000000000 @
b100011010001010000000000000000 m
b10010001101000101000000000000 E
b10010001101000101000000000000 h
b10010001101000101000000000000 j
b110000101001 K
b1100 J
b1111 :
b1111 c
b101 8
b101 a
b1 M
b1 n
b0 L
b0 o
b10100100000000110 ;
b10100100000000110 U
b10000000111 ?
b10000000111 S
b110000101001 5
b110000101001 W
b1111 6
b1111 V
b1100 >
b1100 T
b110000101001011110110011 (
b110000101001011110110011 <
b110000101001011110110011 +"
b1100 *"
b110100 I
b110100 ^
b110100 _
b110100 [
b110000 ,
b110000 F
b110000 \
b110000 `
1"
#125
0"
#130
b100 R
b100 d
1}
0C
1P
1-
b1000 N
b1000 X
b1000 ("
1%"
0#"
b11 Q
b11 l
b11 )"
0A
0r
b0 O
b0 k
b100 +
b100 /
b100 1
b100 @
b100 m
0y
b11111111111111111111000000000000 *
b11111111111111111111000000000000 .
b11111111111111111111000000000000 3
b11111111111111111111000000000000 D
b11111111111111111111000000000000 g
b100 E
b100 h
b100 j
b101001100010 K
b1010 J
b0 :
b0 c
b1010 7
b1010 b
b1100 8
b1100 a
b10 M
b10 n
b100011 G
b100011 q
b110001000000000101 ;
b110001000000000101 U
b0 ?
b0 S
b101001100010 5
b101001100010 W
b0 6
b0 V
b1010 >
b1010 T
b101001100010000000100011 (
b101001100010000000100011 <
b101001100010000000100011 +"
b1101 *"
b111000 I
b111000 ^
b111000 _
b111000 [
b110100 ,
b110100 F
b110100 \
b110100 `
1"
#135
0"
#140
b1000 R
b1000 d
b1000 +
b1000 /
b1000 1
b1000 @
b1000 m
b100 O
b100 k
b100 =
b100 Y
b100 Z
bx )
bx 0
bx 2
b10010001101000101000000000000 *
b10010001101000101000000000000 .
b10010001101000101000000000000 3
b10010001101000101000000000000 D
b10010001101000101000000000000 g
b101101100010 K
b1011 J
b100 :
b100 c
b1011 7
b1011 b
b110001010000000101 ;
b110001010000000101 U
b10 ?
b10 S
b101101100010 5
b101101100010 W
b100 6
b100 V
b1011 >
b1011 T
b101101100010001000100011 (
b101101100010001000100011 <
b101101100010001000100011 +"
b1110 *"
b111100 I
b111100 ^
b111100 _
b111100 [
b111000 ,
b111000 F
b111000 \
b111000 `
1"
#145
0"
#150
b11111111111111111111000000000000 R
b11111111111111111111000000000000 d
b0 =
b0 Y
b0 Z
b11111111111111111111000000000000 )
b11111111111111111111000000000000 0
b11111111111111111111000000000000 2
1w
0}
1C
b0 O
b0 k
b100 +
b100 /
b100 1
b100 @
b100 m
b1 B
b1 &"
1!"
1P
b11 Q
b11 l
b11 )"
0-
b10000 N
b10000 X
b10000 ("
0%"
b0 *
b0 .
b0 3
b0 D
b0 g
b1100010 K
b0 J
b10000 :
b10000 c
b0 7
b0 b
b11 G
b11 q
b110001000000000000 ;
b110001000000000000 U
b1000 ?
b1000 S
b1100010 5
b1100010 W
b10000 6
b10000 V
b0 >
b0 T
b1100010100000000011 (
b1100010100000000011 <
b1100010100000000011 +"
b1111 *"
b1000000 I
b1000000 ^
b1000000 _
b1000000 [
b111100 ,
b111100 F
b111100 \
b111100 `
1"
#155
0"
#160
b10010001101000101000000000000 R
b10010001101000101000000000000 d
b10010001101000101000000000000 )
b10010001101000101000000000000 0
b10010001101000101000000000000 2
b1000 +
b1000 /
b1000 1
b1000 @
b1000 m
b100 O
b100 k
b100 =
b100 Y
b100 Z
b10001100010 K
b100 J
b10001 :
b10001 c
b100 7
b100 b
b110001000000000010 ;
b110001000000000010 U
b10000001000 ?
b10000001000 S
b10001100010 5
b10001100010 W
b10001 6
b10001 V
b100 >
b100 T
b10001100010100010000011 (
b10001100010100010000011 <
b10001100010100010000011 +"
b10000 *"
b1000100 I
b1000100 ^
b1000100 _
b1000100 [
b1000000 ,
b1000000 F
b1000000 \
b1000000 `
1"
#165
0"
#170
b10010001101000110000000000000 R
b10010001101000110000000000000 d
bx )
bx 0
bx 2
b10000 =
b10000 Y
b10000 Z
b11111111111111111111000000000000 O
b11111111111111111111000000000000 k
0P
b100 Q
b100 l
b100 )"
1u
0C
b0 B
b0 &"
0!"
0-
0%"
b100 N
b100 X
b100 ("
1$"
0w
b10010001101000110000000000000 +
b10010001101000110000000000000 /
b10010001101000110000000000000 1
b10010001101000110000000000000 @
b10010001101000110000000000000 m
b11111111111111111111000000000000 *
b11111111111111111111000000000000 .
b11111111111111111111000000000000 3
b11111111111111111111000000000000 D
b11111111111111111111000000000000 g
b10010001101000101000000000000 E
b10010001101000101000000000000 h
b10010001101000101000000000000 j
b1000001011000 K
b10000 J
b10000 :
b10000 c
b10000 7
b10000 b
b1011 8
b1011 a
b0 M
b0 n
b1100011 G
b1100011 q
b101100000000001000 ;
b101100000000001000 U
b1000 ?
b1000 S
b1000001011000 5
b1000001011000 W
b10000 6
b10000 V
b10000 >
b10000 T
b1000001011000100001100011 (
b1000001011000100001100011 <
b1000001011000100001100011 +"
b10001 *"
b1001000 I
b1001000 ^
b1001000 _
b1001000 [
b1000100 ,
b1000100 F
b1000100 \
b1000100 `
1"
#175
0"
#180
b0 R
b0 d
b0 =
b0 Y
b0 Z
b11 Q
b11 l
b11 )"
1s
1C
1P
0u
1""
b10000 N
b10000 X
b10000 ("
0$"
b0 H
b0 ]
b0 '"
1A
b0 O
b0 k
b0 +
b0 /
b0 1
b0 @
b0 m
b0 *
b0 .
b0 3
b0 D
b0 g
b0 E
b0 h
b0 j
b0 K
b0 J
b0 :
b0 c
b0 7
b0 b
b0 8
b0 a
b10011 G
b10011 q
b0 ;
b0 U
b0 ?
b0 S
b0 5
b0 W
b0 6
b0 V
b0 >
b0 T
b10011 (
b10011 <
b10011 +"
b10010 *"
b1001100 I
b1001100 ^
b1001100 _
b1001100 [
b1001000 ,
b1001000 F
b1001000 \
b1001000 `
1"
#185
0"
#190
b10011 *"
b1010000 I
b1010000 ^
b1010000 _
b1010000 [
b1001100 ,
b1001100 F
b1001100 \
b1001100 `
1"
#195
0"
#200
b11000 R
b11000 d
0A
b11000 +
b11000 /
b11000 1
b11000 @
b11000 m
b11000 O
b11000 k
b11000 =
b11000 Y
b11000 Z
b1100000000000 K
b11000 J
b10010 :
b10010 c
b11000 7
b11000 b
b1100 ;
b1100 U
b1001 ?
b1001 S
b1100000000000 5
b1100000000000 W
b10010 6
b10010 V
b11000 >
b11000 T
b1100000000000100100010011 (
b1100000000000100100010011 <
b1100000000000100100010011 +"
b10100 *"
b1010100 I
b1010100 ^
b1010100 _
b1010100 [
b1010000 ,
b1010000 F
b1010000 \
b1010000 `
1"
#205
0"
#210
b0 R
b0 d
b10000 =
b10000 Y
b10000 Z
b1 H
b1 ]
b1 '"
1A
b100 Q
b100 l
b100 )"
b10010001101000101000000000000 O
b10010001101000101000000000000 k
0P
1u
0C
0s
b0 B
b0 &"
0!"
0-
0%"
b100 N
b100 X
b100 ("
1$"
0""
b0 +
b0 /
b0 1
b0 @
b0 m
b10010001101000101000000000000 *
b10010001101000101000000000000 .
b10010001101000101000000000000 3
b10010001101000101000000000000 D
b10010001101000101000000000000 g
b10010001101000101000000000000 E
b10010001101000101000000000000 h
b10010001101000101000000000000 j
b1000101011000 K
b10001 J
b10000 :
b10000 c
b10001 7
b10001 b
b1011 8
b1011 a
b1100011 G
b1100011 q
b101100010000001000 ;
b101100010000001000 U
b1000 ?
b1000 S
b1000101011000 5
b1000101011000 W
b10000 6
b10000 V
b10001 >
b10001 T
b1000101011000100001100011 (
b1000101011000100001100011 <
b1000101011000100001100011 +"
b10101 *"
b1100100 I
b1100100 ^
b1100100 _
b1011000 [
b1010100 ,
b1010100 F
b1010100 \
b1010100 `
1"
#215
0"
#220
b100000 R
b100000 d
b100000 =
b100000 Y
b100000 Z
b11 Q
b11 l
b11 )"
1s
1C
1P
0u
1""
b10000 N
b10000 X
b10000 ("
0$"
b0 H
b0 ]
b0 '"
b100000 O
b100000 k
0A
b100000 +
b100000 /
b100000 1
b100000 @
b100000 m
b0 *
b0 .
b0 3
b0 D
b0 g
b0 E
b0 h
b0 j
b10000000000000 K
b100000 J
b10100 :
b10100 c
b0 7
b0 b
b0 8
b0 a
b1 L
b1 o
b10011 G
b10011 q
b10000 ;
b10000 U
b11010 ?
b11010 S
b10000000000000 5
b10000000000000 W
b110100 6
b110100 V
b100000 >
b100000 T
b10000000000000101000010011 (
b10000000000000101000010011 <
b10000000000000101000010011 +"
b11001 *"
b1101000 I
b1101000 ^
b1101000 _
b1101000 [
b1100100 ,
b1100100 F
b1100100 \
b1100100 `
1"
#225
0"
#230
b1101100 R
b1101100 d
b11111111111111111111111111101100 =
b11111111111111111111111111101100 Y
b11111111111111111111111111101100 Z
1A
b0 +
b0 /
b0 1
b0 @
b0 m
b1111111111111111111100000000 O
b1111111111111111111100000000 k
b0 Q
b0 l
b0 )"
0C
0P
b10 B
b10 &"
b10 H
b10 ]
b10 '"
1v
0""
b1 N
b1 X
b1 ("
0s
b1111111111111111111100000000 *
b1111111111111111111100000000 .
b1111111111111111111100000000 3
b1111111111111111111100000000 D
b1111111111111111111100000000 g
b11111110110111111111 K
b111111101101 J
b0 :
b0 c
b1101 7
b1101 b
b11111 8
b11111 a
b111 M
b111 n
b1111111 L
b1111111 o
b1101111 G
b1101111 q
b11111111111111110110 ;
b11111111111111110110 U
b101111110000 ?
b101111110000 S
b11111110110111111111 5
b11111110110111111111 W
b111111100000 6
b111111100000 V
b111111101101 >
b111111101101 T
b11111110110111111111000001101111 (
b11111110110111111111000001101111 <
b11111110110111111111000001101111 +"
b11010 *"
b1010100 I
b1010100 ^
b1010100 _
b1101100 [
b1101000 ,
b1101000 F
b1101000 \
b1101000 `
1"
#235
0"
#240
b10000 =
b10000 Y
b10000 Z
b0 R
b0 d
b100 Q
b100 l
b100 )"
1u
1$"
b100 N
b100 X
b100 ("
b0 B
b0 &"
b1 H
b1 ]
b1 '"
0v
b10010001101000101000000000000 O
b10010001101000101000000000000 k
1A
b0 +
b0 /
b0 1
b0 @
b0 m
b10010001101000101000000000000 *
b10010001101000101000000000000 .
b10010001101000101000000000000 3
b10010001101000101000000000000 D
b10010001101000101000000000000 g
b10010001101000101000000000000 E
b10010001101000101000000000000 h
b10010001101000101000000000000 j
b1000101011000 K
b10001 J
b10000 :
b10000 c
b10001 7
b10001 b
b1011 8
b1011 a
b0 M
b0 n
b0 L
b0 o
b1100011 G
b1100011 q
b101100010000001000 ;
b101100010000001000 U
b1000 ?
b1000 S
b1000101011000 5
b1000101011000 W
b10000 6
b10000 V
b10001 >
b10001 T
b1000101011000100001100011 (
b1000101011000100001100011 <
b1000101011000100001100011 +"
b10101 *"
b1100100 I
b1100100 ^
b1100100 _
b1011000 [
b1010100 ,
b1010100 F
b1010100 \
b1010100 `
1"
#245
0"
#250
b100000 R
b100000 d
b100000 =
b100000 Y
b100000 Z
b11 Q
b11 l
b11 )"
1s
1C
1P
0u
1""
b10000 N
b10000 X
b10000 ("
0$"
b0 H
b0 ]
b0 '"
b100000 O
b100000 k
0A
b100000 +
b100000 /
b100000 1
b100000 @
b100000 m
b0 *
b0 .
b0 3
b0 D
b0 g
b0 E
b0 h
b0 j
b10000000000000 K
b100000 J
b10100 :
b10100 c
b0 7
b0 b
b0 8
b0 a
b1 L
b1 o
b10011 G
b10011 q
b10000 ;
b10000 U
b11010 ?
b11010 S
b10000000000000 5
b10000000000000 W
b110100 6
b110100 V
b100000 >
b100000 T
b10000000000000101000010011 (
b10000000000000101000010011 <
b10000000000000101000010011 +"
b11001 *"
b1101000 I
b1101000 ^
b1101000 _
b1101000 [
b1100100 ,
b1100100 F
b1100100 \
b1100100 `
1"
#255
0"
#260
b1101100 R
b1101100 d
b11111111111111111111111111101100 =
b11111111111111111111111111101100 Y
b11111111111111111111111111101100 Z
1A
b0 +
b0 /
b0 1
b0 @
b0 m
b1111111111111111111100000000 O
b1111111111111111111100000000 k
b0 Q
b0 l
b0 )"
0C
0P
b10 B
b10 &"
b10 H
b10 ]
b10 '"
1v
0""
b1 N
b1 X
b1 ("
0s
b1111111111111111111100000000 *
b1111111111111111111100000000 .
b1111111111111111111100000000 3
b1111111111111111111100000000 D
b1111111111111111111100000000 g
b11111110110111111111 K
b111111101101 J
b0 :
b0 c
b1101 7
b1101 b
b11111 8
b11111 a
b111 M
b111 n
b1111111 L
b1111111 o
b1101111 G
b1101111 q
b11111111111111110110 ;
b11111111111111110110 U
b101111110000 ?
b101111110000 S
b11111110110111111111 5
b11111110110111111111 W
b111111100000 6
b111111100000 V
b111111101101 >
b111111101101 T
b11111110110111111111000001101111 (
b11111110110111111111000001101111 <
b11111110110111111111000001101111 +"
b11010 *"
b1010100 I
b1010100 ^
b1010100 _
b1101100 [
b1101000 ,
b1101000 F
b1101000 \
b1101000 `
1"
#265
0"
#270
b10000 =
b10000 Y
b10000 Z
b0 R
b0 d
b100 Q
b100 l
b100 )"
1u
1$"
b100 N
b100 X
b100 ("
b0 B
b0 &"
b1 H
b1 ]
b1 '"
0v
b10010001101000101000000000000 O
b10010001101000101000000000000 k
1A
b0 +
b0 /
b0 1
b0 @
b0 m
b10010001101000101000000000000 *
b10010001101000101000000000000 .
b10010001101000101000000000000 3
b10010001101000101000000000000 D
b10010001101000101000000000000 g
b10010001101000101000000000000 E
b10010001101000101000000000000 h
b10010001101000101000000000000 j
b1000101011000 K
b10001 J
b10000 :
b10000 c
b10001 7
b10001 b
b1011 8
b1011 a
b0 M
b0 n
b0 L
b0 o
b1100011 G
b1100011 q
b101100010000001000 ;
b101100010000001000 U
b1000 ?
b1000 S
b1000101011000 5
b1000101011000 W
b10000 6
b10000 V
b10001 >
b10001 T
b1000101011000100001100011 (
b1000101011000100001100011 <
b1000101011000100001100011 +"
b10101 *"
b1100100 I
b1100100 ^
b1100100 _
b1011000 [
b1010100 ,
b1010100 F
b1010100 \
b1010100 `
1"
#275
0"
#280
b100000 R
b100000 d
b100000 =
b100000 Y
b100000 Z
b11 Q
b11 l
b11 )"
1s
1C
1P
0u
1""
b10000 N
b10000 X
b10000 ("
0$"
b0 H
b0 ]
b0 '"
b100000 O
b100000 k
0A
b100000 +
b100000 /
b100000 1
b100000 @
b100000 m
b0 *
b0 .
b0 3
b0 D
b0 g
b0 E
b0 h
b0 j
b10000000000000 K
b100000 J
b10100 :
b10100 c
b0 7
b0 b
b0 8
b0 a
b1 L
b1 o
b10011 G
b10011 q
b10000 ;
b10000 U
b11010 ?
b11010 S
b10000000000000 5
b10000000000000 W
b110100 6
b110100 V
b100000 >
b100000 T
b10000000000000101000010011 (
b10000000000000101000010011 <
b10000000000000101000010011 +"
b11001 *"
b1101000 I
b1101000 ^
b1101000 _
b1101000 [
b1100100 ,
b1100100 F
b1100100 \
b1100100 `
1"
#285
0"
