lab-2/source-pl/plcpu_sim.vcd
$date
	Thu Apr 23 17:22:22 2026
$end
$version
	Icarus Verilog
$end
$timescale
	1ps
$end
$scope module plcomp_tb $end
$var reg 1 ! clk $end
$var reg 1 " rstn $end
$var integer 32 # i [31:0] $end
$scope module plcomp $end
$var wire 1 ! clk $end
$var wire 1 $ reset $end
$var wire 1 " rstn $end
$var wire 32 % instr [31:0] $end
$var wire 32 & dm_dout [31:0] $end
$var wire 32 ' dm_din [31:0] $end
$var wire 32 ( dm_addr [31:0] $end
$var wire 32 ) PC [31:0] $end
$var wire 1 * MemWrite $end
$var wire 1 + MemRead $end
$scope module U_DM $end
$var wire 1 ! clk $end
$var wire 32 , din [31:0] $end
$var wire 32 - addr [31:0] $end
$var wire 1 * DMWr $end
$var wire 1 + DMRe $end
$var reg 32 . dout [31:0] $end
$upscope $end
$scope module U_PLCPU $end
$var wire 32 / A [31:0] $end
$var wire 32 0 Addr_out [31:0] $end
$var wire 32 1 Data_in [31:0] $end
$var wire 32 2 Data_out [31:0] $end
$var wire 5 3 NPCOp [4:0] $end
$var wire 1 ! clk $end
$var wire 1 + mem_r $end
$var wire 1 * mem_w $end
$var wire 1 $ reset $end
$var wire 20 4 uimm [19:0] $end
$var wire 12 5 simm [11:0] $end
$var wire 5 6 rs2 [4:0] $end
$var wire 5 7 rs1 [4:0] $end
$var wire 5 8 rd [4:0] $end
$var wire 20 9 jimm [19:0] $end
$var wire 32 : instr [31:0] $end
$var wire 32 ; inst_in [31:0] $end
$var wire 32 < immout [31:0] $end
$var wire 5 = iimm_shamt [4:0] $end
$var wire 12 > iimm [11:0] $end
$var wire 12 ? bimm [11:0] $end
$var wire 32 @ aluout [31:0] $end
$var wire 1 A Zero $end
$var wire 2 B WDSel [1:0] $end
$var wire 5 C WB_rd [4:0] $end
$var wire 32 D WB_pc [31:0] $end
$var wire 32 E WB_inst [31:0] $end
$var wire 32 F WB_aluout [31:0] $end
$var wire 2 G WB_WDSel [1:0] $end
$var wire 1 H WB_RegWrite $end
$var wire 32 I WB_MemData [31:0] $end
$var wire 1 J RegWrite $end
$var wire 32 K RD2 [31:0] $end
$var wire 32 L RD1 [31:0] $end
$var wire 32 M PC_out [31:0] $end
$var wire 7 N Op [6:0] $end
$var wire 32 O NPC [31:0] $end
$var wire 5 P MEM_rs2 [4:0] $end
$var wire 5 Q MEM_rd [4:0] $end
$var wire 32 R MEM_aluout [31:0] $end
$var wire 2 S MEM_WDSel [1:0] $end
$var wire 136 T MEM_WB_out [135:0] $end
$var wire 136 U MEM_WB_in [135:0] $end
$var wire 1 V MEM_RegWrite $end
$var wire 32 W MEM_RD2 [31:0] $end
$var wire 1 X MEM_MemWrite $end
$var wire 1 Y MEM_MemRead $end
$var wire 1 Z MEM_DMType $end
$var wire 12 [ Imm12 [11:0] $end
$var wire 20 \ IMM [19:0] $end
$var wire 64 ] IF_ID_out [63:0] $end
$var wire 64 ^ IF_ID_in [63:0] $end
$var wire 1 _ ID_MemWrite $end
$var wire 1 ` ID_MemRead $end
$var wire 194 a ID_EX_out [193:0] $end
$var wire 194 b ID_EX_in [193:0] $end
$var wire 7 c Funct7 [6:0] $end
$var wire 3 d Funct3 [2:0] $end
$var wire 5 e EX_rs2 [4:0] $end
$var wire 5 f EX_rs1 [4:0] $end
$var wire 5 g EX_rd [4:0] $end
$var wire 32 h EX_pc [31:0] $end
$var wire 32 i EX_immout [31:0] $end
$var wire 2 j EX_WDSel [1:0] $end
$var wire 1 k EX_RegWrite $end
$var wire 32 l EX_RD2 [31:0] $end
$var wire 32 m EX_RD1 [31:0] $end
$var wire 5 n EX_NPCOp [4:0] $end
$var wire 1 o EX_MemWrite $end
$var wire 1 p EX_MemRead $end
$var wire 146 q EX_MEM_out [145:0] $end
$var wire 146 r EX_MEM_in [145:0] $end
$var wire 1 s EX_DMType $end
$var wire 1 t EX_ALUSrc $end
$var wire 5 u EX_ALUOp [4:0] $end
$var wire 6 v EXTOp [5:0] $end
$var wire 32 w B [31:0] $end
$var wire 1 x ALUSrc $end
$var wire 5 y ALUOp [4:0] $end
$var reg 32 z WD [31:0] $end
$var reg 32 { alu_in1 [31:0] $end
$var reg 32 | alu_in2 [31:0] $end
$var reg 32 } memdata_wr [31:0] $end
$scope module EX_MEM $end
$var wire 1 ~ clk $end
$var wire 146 !" in [145:0] $end
$var wire 1 $ rst $end
$var parameter 32 "" WIDTH $end
$var reg 146 #" out [145:0] $end
$upscope $end
$scope module ID_EX $end
$var wire 1 $" clk $end
$var wire 194 %" in [193:0] $end
$var wire 1 $ rst $end
$var parameter 32 &" WIDTH $end
$var reg 194 '" out [193:0] $end
$upscope $end
$scope module IF_ID $end
$var wire 1 (" clk $end
$var wire 64 )" in [63:0] $end
$var wire 1 $ rst $end
$var parameter 32 *" WIDTH $end
$var reg 64 +" out [63:0] $end
$upscope $end
$scope module MEM_WB $end
$var wire 1 ," clk $end
$var wire 136 -" in [135:0] $end
$var wire 1 $ rst $end
$var parameter 32 ." WIDTH $end
$var reg 136 /" out [135:0] $end
$upscope $end
$scope module U_EXT $end
$var wire 12 0" iimm [11:0] $end
$var wire 12 1" simm [11:0] $end
$var wire 20 2" uimm [19:0] $end
$var wire 6 3" EXTOp [5:0] $end
$var reg 32 4" immout [31:0] $end
$upscope $end
$scope module U_NPC $end
$var wire 32 5" IMM [31:0] $end
$var wire 5 6" NPCOp [4:0] $end
$var wire 32 7" PCPLUS4 [31:0] $end
$var wire 32 8" PC [31:0] $end
$var reg 32 9" NPC [31:0] $end
$upscope $end
$scope module U_PC $end
$var wire 32 :" NPC [31:0] $end
$var wire 1 ;" clk $end
$var wire 1 $ rst $end
$var reg 32 <" PC [31:0] $end
$upscope $end
$scope module U_RF $end
$var wire 5 =" A1 [4:0] $end
$var wire 5 >" A2 [4:0] $end
$var wire 5 ?" A3 [4:0] $end
$var wire 1 H RFWr $end
$var wire 32 @" WD [31:0] $end
$var wire 1 ! clk $end
$var wire 1 $ rst $end
$var wire 32 A" RD2 [31:0] $end
$var wire 32 B" RD1 [31:0] $end
$var integer 32 C" i [31:0] $end
$upscope $end
$scope module U_alu $end
$var wire 32 D" A [31:0] $end
$var wire 5 E" ALUOp [4:0] $end
$var wire 32 F" B [31:0] $end
$var wire 1 A Zero $end
$var reg 32 G" C [31:0] $end
$upscope $end
$scope module U_ctrl $end
$var wire 1 x ALUSrc $end
$var wire 3 H" Funct3 [2:0] $end
$var wire 7 I" Funct7 [6:0] $end
$var wire 1 J" LUI $end
$var wire 1 ` MemRead $end
$var wire 1 _ MemWrite $end
$var wire 5 K" NPCOp [4:0] $end
$var wire 7 L" Op [6:0] $end
$var wire 1 J RegWrite $end
$var wire 1 A Zero $end
$var wire 1 M" i_add $end
$var wire 1 N" i_addi $end
$var wire 1 O" i_and $end
$var wire 1 P" i_lw $end
$var wire 1 Q" i_or $end
$var wire 1 R" i_sll $end
$var wire 1 S" i_sra $end
$var wire 1 T" i_srl $end
$var wire 1 U" i_sub $end
$var wire 1 V" i_sw $end
$var wire 1 W" i_xor $end
$var wire 1 X" itype_l $end
$var wire 1 Y" itype_r $end
$var wire 1 Z" rtype $end
$var wire 1 [" stype $end
$var wire 2 \" WDSel [1:0] $end
$var wire 6 ]" EXTOp [5:0] $end
$var wire 5 ^" ALUOp [4:0] $end
$upscope $end
$upscope $end
$scope module U_imem $end
$var wire 30 _" addr [31:2] $end
$var wire 32 `" dout [31:0] $end
$upscope $end
$upscope $end
$upscope $end
$enddefinitions $end
$comment Show the parameter values. $end
$dumpall
b10001000 ."
b1000000 *"
b11000010 &"
b10010010 ""
$end
#0
$dumpvars
b10010001101000101001010110111 `"
b0 _"
b0 ^"
b0 ]"
b0 \"
0["
0Z"
0Y"
0X"
0W"
0V"
0U"
0T"
0S"
0R"
0Q"
0P"
0O"
0N"
0M"
b0 L"
bz000 K"
0J"
b0 I"
b0 H"
b0 G"
b0 F"
b0 E"
b0 D"
b100000 C"
b0 B"
b0 A"
b0 @"
b0 ?"
b0 >"
b0 ="
b0 <"
1;"
b100 :"
b100 9"
b0 8"
b100 7"
b0 6"
b0 5"
b0 4"
b0 3"
b0 2"
b0 1"
b0 0"
b0 /"
b0xxxxxxxxxxxxxxxxxxxxxxxxxxxxxxxx000000000000000000000000000000000000000000000000000000000000000000000 -"
1,"
b0 +"
b1001000110100010100101011011100000000000000000000000000000000 )"
1("
b0 '"
b0zz000000000000000000000000000000000000000000000000000000000000000000000000000000000000000000000000000000000000000000000000000000000000000000000000000000000 %"
1$"
b0 #"
b0 !"
1~
b0 }
b0 |
b0 {
b0 z
b0 y
0x
b0 w
b0 v
b0 u
0t
0s
b0 r
b0 q
0p
0o
b0 n
b0 m
b0 l
0k
b0 j
b0 i
b0 h
b0 g
b0 f
b0 e
b0 d
b0 c
b0zz000000000000000000000000000000000000000000000000000000000000000000000000000000000000000000000000000000000000000000000000000000000000000000000000000000000 b
b0 a
0`
0_
b1001000110100010100101011011100000000000000000000000000000000 ^
b0 ]
b0 \
b0 [
0Z
0Y
0X
b0 W
0V
b0xxxxxxxxxxxxxxxxxxxxxxxxxxxxxxxx000000000000000000000000000000000000000000000000000000000000000000000 U
b0 T
b0 S
b0 R
b0 Q
b0 P
b100 O
b0 N
b0 M
b0 L
b0 K
0J
b0 I
0H
b0 G
b0 F
b0 E
b0 D
b0 C
b0 B
1A
b0 @
b0 ?
b0 >
b0 =
b0 <
b10010001101000101001010110111 ;
b0 :
b0 9
b0 8
b0 7
b0 6
b0 5
b0 4
bz000 3
b0 2
bx 1
b0 0
b0 /
bx .
b0 -
b0 ,
0+
0*
b0 )
b0 (
b0 '
bx &
b10010001101000101001010110111 %
1$
b0 #
1"
0!
$end
#5000
b1 #
0;"
0("
0$"
0~
0,"
b100000 C"
1!
#10000
1;"
1("
1$"
1~
1,"
0!
#15000
b10 #
0;"
0("
0$"
0~
0,"
b100000 C"
1!
#20000
1;"
1("
1$"
1~
1,"
0!
#25000
b11 #
0;"
0("
0$"
0~
0,"
b100000 C"
1!
#30000
1;"
1("
1$"
1~
1,"
0!
#35000
b100 #
0;"
0("
0$"
0~
0,"
b100000 C"
1!
#40000
1;"
1("
1$"
1~
1,"
0!
#45000
b101 #
0;"
0("
0$"
0~
0,"
b100000 C"
1!
#50000
b10010001101000101000000000000 <
b10010001101000101000000000000 4"
1J"
b1 y
b1 ^"
b10 v
b10 3"
b10 ]"
1J
1x
b0 B
b0 \"
0`
0X"
b100100011010001010010101101110000001zz000000010100000000000000000000000000000000000000000000000000000000000000000001001000110100010100000000000000011010000010100000000000000000000000000000000 b
b100100011010001010010101101110000001zz000000010100000000000000000000000000000000000000000000000000000000000000000001001000110100010100000000000000011010000010100000000000000000000000000000000 %"
b100010110010010001 9
b10010010010 ?
b100100101 5
b100100101 1"
b10010001101000101 \
b100100011 [
b101 8
b11 6
b11 >"
b1000 7
b1000 ="
b101 d
b101 H"
b1001 c
b1001 I"
b110111 N
b110111 L"
b10010001101000101 4
b10010001101000101 2"
b100100011 >
b100100011 0"
b11 =
bz000 n
bz000 6"
b1000 O
b1000 9"
b1000 :"
b1111111111111111111100110011011100000000000000000000000000000100 ^
b1111111111111111111100110011011100000000000000000000000000000100 )"
b11111111111111111111001100110111 %
b11111111111111111111001100110111 ;
b11111111111111111111001100110111 `"
b1 _"
b10010001101000101001010110111 :
bx I
b1000 7"
b100 )
b100 M
b100 8"
b100 <"
b1001000110100010100101011011100000000000000000000000000000000 ]
b1001000110100010100101011011100000000000000000000000000000000 +"
b0zz000000000000000000000000000000000000000000000000000000000000000000000000000000000000000000000000000000000000000000000000000000000000000000000000000000000 a
b0zz000000000000000000000000000000000000000000000000000000000000000000000000000000000000000000000000000000000000000000000000000000000000000000000000000000000 '"
b0xxxxxxxxxxxxxxxxxxxxxxxxxxxxxxxx000000000000000000000000000000000000000000000000000000000000000000000 T
b0xxxxxxxxxxxxxxxxxxxxxxxxxxxxxxxx000000000000000000000000000000000000000000000000000000000000000000000 /"
1;"
1("
1$"
1~
1,"
0!
0$
0"
#55000
b110 #
0;"
0("
0$"
0~
0,"
1!
#60000
b11111111111111111111000000000000 <
b11111111111111111111000000000000 4"
b111111111111111111110011001101110000001zz000000010100000000000000000000000000000000000000000000000000000000000000001111111111111111111100000000000011111111110011000000000000000000000000000000100 b
b111111111111111111110011001101110000001zz000000010100000000000000000000000000000000000000000000000000000000000000001111111111111111111100000000000011111111110011000000000000000000000000000000100 %"
b11111111111111111111 9
b101111110011 ?
b111111100110 5
b111111100110 1"
0A
b10010001101000101000000000000 @
b10010001101000101000000000000 G"
b10010001101000101001010110111000011000000100010010001101000101000000000000000000000000000000000000000000000010100000000000000000000000000000000 r
b10010001101000101001010110111000011000000100010010001101000101000000000000000000000000000000000000000000000010100000000000000000000000000000000 !"
b11111111111111111111 \
b111111111111 [
b110 8
b11111 6
b11111 >"
b11111 7
b11111 ="
b111 d
b111 H"
b1111111 c
b1111111 I"
b11111111111111111111 4
b11111111111111111111 2"
b111111111111 >
b111111111111 0"
b11111 =
b10010001101000101000000000000 w
b10010001101000101000000000000 F"
b1100 O
b1100 9"
b1100 :"
b1000000000001100001001100000000000000000000000000001000 ^
b1000000000001100001001100000000000000000000000000001000 )"
b10000000000011000010011 %
b10000000000011000010011 ;
b10000000000011000010011 `"
b10 _"
b11111111111111111111001100110111 :
1t
b1 u
b1 E"
1k
b10010001101000101000000000000 i
b10010001101000101000000000000 5"
b11 e
b1000 f
b101 g
b1100 7"
b1000 )
b1000 M
b1000 8"
b1000 <"
b1111111111111111111100110011011100000000000000000000000000000100 ]
b1111111111111111111100110011011100000000000000000000000000000100 +"
b100100011010001010010101101110000001zz000000010100000000000000000000000000000000000000000000000000000000000000000001001000110100010100000000000000011010000010100000000000000000000000000000000 a
b100100011010001010010101101110000001zz000000010100000000000000000000000000000000000000000000000000000000000000000001001000110100010100000000000000011010000010100000000000000000000000000000000 '"
1;"
1("
1$"
1~
1,"
0!
#65000
b111 #
0;"
0("
0$"
0~
0,"
1!
#70000
b100 <
b100 4"
0M"
b11 y
b11 ^"
1N"
1Y"
1J
1x
b10000 v
b10000 3"
b10000 ]"
0Z"
0J"
b100000000000110000100110000001zz000000110100000000000000000000000000000000000000000000000000000000000000000000000000000000000000000000010000100000000110000000000000000000000000000001000 b
b100000000000110000100110000001zz000000110100000000000000000000000000000000000000000000000000000000000000000000000000000000000000000000010000100000000110000000000000000000000000000001000 %"
b10 9
b110 ?
b1100 5
b1100 1"
b11111111111111111111000000000000 @
b11111111111111111111000000000000 G"
b11111111111111111111001100110111011111000000111111111111111111111000000000000000000000000000000000000000000000011000000000000000000000000000000100 r
b11111111111111111111001100110111011111000000111111111111111111111000000000000000000000000000000000000000000000011000000000000000000000000000000100 !"
b10010001101000101001010110111001xxxxxxxxxxxxxxxxxxxxxxxxxxxxxxxx000100100011010001010000000000000010100000000000000000000000000000000 U
b10010001101000101001010110111001xxxxxxxxxxxxxxxxxxxxxxxxxxxxxxxx000100100011010001010000000000000010100000000000000000000000000000000 -"
b10000000000 \
b100 [
b1100 8
b100 6
b100 >"
b0 7
b0 ="
b0 d
b0 H"
b0 c
b0 I"
b10011 N
b10011 L"
b10000000000 4
b10000000000 2"
b100 >
b100 0"
b100 =
b11111111111111111111000000000000 w
b11111111111111111111000000000000 F"
b10000 O
b10000 9"
b10000 :"
b1001100000000000000000000000000001100 ^
b1001100000000000000000000000000001100 )"
b10011 %
b10011 ;
b10011 `"
b11 _"
b10000000000011000010011 :
b100 h
b11111111111111111111000000000000 i
b11111111111111111111000000000000 5"
b11111 e
b11111 f
b110 g
b11 P
1V
b10010001101000101000000000000 (
b10010001101000101000000000000 -
b10010001101000101000000000000 0
b10010001101000101000000000000 R
b101 Q
b10000 7"
b1100 )
b1100 M
b1100 8"
b1100 <"
b1000000000001100001001100000000000000000000000000001000 ]
b1000000000001100001001100000000000000000000000000001000 +"
b111111111111111111110011001101110000001zz000000010100000000000000000000000000000000000000000000000000000000000000001111111111111111111100000000000011111111110011000000000000000000000000000000100 a
b111111111111111111110011001101110000001zz000000010100000000000000000000000000000000000000000000000000000000000000001111111111111111111100000000000011111111110011000000000000000000000000000000100 '"
b10010001101000101001010110111000011000000100010010001101000101000000000000000000000000000000000000000000000010100000000000000000000000000000000 q
b10010001101000101001010110111000011000000100010010001101000101000000000000000000000000000000000000000000000010100000000000000000000000000000000 #"
1;"
1("
1$"
1~
1,"
0!
#75000
b1000 #
0;"
0("
0$"
0~
0,"
1!
#80000
b0 <
b0 4"
b10010001101000101000000000000 z
b10010001101000101000000000000 @"
b100110000001zz000000110100000000000000000000000000000000000000000000000000000000000000000000000000000000000000000000000000000000000000000000000000000000000000000001100 b
b100110000001zz000000110100000000000000000000000000000000000000000000000000000000000000000000000000000000000000000000000000000000000000000000000000000000000000000001100 %"
b0 9
b0 ?
b0 5
b0 1"
b10000000000011000010011000100000000100000000000000000000000000000100000000000000000000000000000000000110000000000000000000000000000001000 r
b10000000000011000010011000100000000100000000000000000000000000000100000000000000000000000000000000000110000000000000000000000000000001000 !"
b11111111111111111111001100110111001xxxxxxxxxxxxxxxxxxxxxxxxxxxxxxxx111111111111111111110000000000000011000000000000000000000000000000100 U
b11111111111111111111001100110111001xxxxxxxxxxxxxxxxxxxxxxxxxxxxxxxx111111111111111111110000000000000011000000000000000000000000000000100 -"
b0 \
b0 [
b0 8
b0 6
b0 >"
b0 4
b0 2"
b0 >
b0 0"
b0 =
b100 @
b100 G"
b100 w
b100 F"
b10100 O
b10100 9"
b10100 :"
b1001100000000000000000000000000010000 ^
b1001100000000000000000000000000010000 )"
b100 _"
b10011 :
b1000 h
b11 u
b11 E"
b100 i
b100 5"
b100 e
b0 f
b1100 g
b11111 P
b11111111111111111111000000000000 (
b11111111111111111111000000000000 -
b11111111111111111111000000000000 0
b11111111111111111111000000000000 R
b110 Q
b10010001101000101001010110111 E
1H
b10010001101000101000000000000 F
b101 C
b101 ?"
b10100 7"
b10000 )
b10000 M
b10000 8"
b10000 <"
b1001100000000000000000000000000001100 ]
b1001100000000000000000000000000001100 +"
b100000000000110000100110000001zz000000110100000000000000000000000000000000000000000000000000000000000000000000000000000000000000000000010000100000000110000000000000000000000000000001000 a
b100000000000110000100110000001zz000000110100000000000000000000000000000000000000000000000000000000000000000000000000000000000000000000010000100000000110000000000000000000000000000001000 '"
b11111111111111111111001100110111011111000000111111111111111111111000000000000000000000000000000000000000000000011000000000000000000000000000000100 q
b11111111111111111111001100110111011111000000111111111111111111111000000000000000000000000000000000000000000000011000000000000000000000000000000100 #"
b10010001101000101001010110111001xxxxxxxxxxxxxxxxxxxxxxxxxxxxxxxx000100100011010001010000000000000010100000000000000000000000000000000 T
b10010001101000101001010110111001xxxxxxxxxxxxxxxxxxxxxxxxxxxxxxxx000100100011010001010000000000000010100000000000000000000000000000000 /"
1;"
1("
1$"
1~
1,"
0!
#85000
b1001 #
0;"
0("
0$"
0~
0,"
1!
#90000
b11111111111111111111000000000000 z
b11111111111111111111000000000000 @"
b100110000001zz000000110100000000000000000000000000000000000000000000000000000000000000000000000000000000000000000000000000000000000000000000000000000000000000000010000 b
b100110000001zz000000110100000000000000000000000000000000000000000000000000000000000000000000000000000000000000000000000000000000000000000000000000000000000000000010000 %"
1A
b0 @
b0 G"
b10011000000000000100000000000000000000000000000000000000000000000000000000000000000000000000000000000000000000000001100 r
b10011000000000000100000000000000000000000000000000000000000000000000000000000000000000000000000000000000000000000001100 !"
b10000000000011000010011001xxxxxxxxxxxxxxxxxxxxxxxxxxxxxxxx000000000000000000000000000001000110000000000000000000000000000001000 U
b10000000000011000010011001xxxxxxxxxxxxxxxxxxxxxxxxxxxxxxxx000000000000000000000000000001000110000000000000000000000000000001000 -"
b0 w
b0 F"
b11000 O
b11000 9"
b11000 :"
b1100010100000111011001100000000000000000000000000010100 ^
b1100010100000111011001100000000000000000000000000010100 )"
b11000101000001110110011 %
b11000101000001110110011 ;
b11000101000001110110011 `"
b101 _"
b1100 h
b0 i
b0 5"
b0 e
b0 g
b100 P
b100 (
b100 -
b100 0
b100 R
b1100 Q
b11111111111111111111001100110111 E
b11111111111111111111000000000000 F
b110 C
b110 ?"
b100 D
b11000 7"
b10100 )
b10100 M
b10100 8"
b10100 <"
b1001100000000000000000000000000010000 ]
b1001100000000000000000000000000010000 +"
b100110000001zz000000110100000000000000000000000000000000000000000000000000000000000000000000000000000000000000000000000000000000000000000000000000000000000000000001100 a
b100110000001zz000000110100000000000000000000000000000000000000000000000000000000000000000000000000000000000000000000000000000000000000000000000000000000000000000001100 '"
b10000000000011000010011000100000000100000000000000000000000000000100000000000000000000000000000000000110000000000000000000000000000001000 q
b10000000000011000010011000100000000100000000000000000000000000000100000000000000000000000000000000000110000000000000000000000000000001000 #"
b11111111111111111111001100110111001xxxxxxxxxxxxxxxxxxxxxxxxxxxxxxxx111111111111111111110000000000000011000000000000000000000000000000100 T
b11111111111111111111001100110111001xxxxxxxxxxxxxxxxxxxxxxxxxxxxxxxx111111111111111111110000000000000011000000000000000000000000000000100 /"
1;"
1("
1$"
1~
1,"
0!
#95000
b1010 #
0;"
0("
0$"
0~
0,"
1!
#100000
b0 <
b0 4"
b100 z
b100 @"
b11 y
b11 ^"
1M"
b0 v
b0 3"
b0 ]"
0N"
0x
0Y"
1Z"
b11111111111111111111000000000000 K
b11111111111111111111000000000000 A"
b10010001101000101000000000000 L
b10010001101000101000000000000 B"
b110001010000011101100110000000zz000000110111111111111111111111000000000000000100100011010001010000000000000000000000000000000000000000000000110001010011100000000000000000000000000010100 b
b110001010000011101100110000000zz000000110111111111111111111111000000000000000100100011010001010000000000000000000000000000000000000000000000110001010011100000000000000000000000000010100 %"
b10100000000000011 9
b10000000011 ?
b111 5
b111 1"
b10011000000000000100000000000000000000000000000000000000000000000000000000000000000000000000000000000000000000000010000 r
b10011000000000000100000000000000000000000000000000000000000000000000000000000000000000000000000000000000000000000010000 !"
b10011001xxxxxxxxxxxxxxxxxxxxxxxxxxxxxxxx000000000000000000000000000000000000000000000000000000000000000001100 U
b10011001xxxxxxxxxxxxxxxxxxxxxxxxxxxxxxxx000000000000000000000000000000000000000000000000000000000000000001100 -"
b11000101000 \
b110 [
b111 8
b110 6
b110 >"
b101 7
b101 ="
b110011 N
b110011 L"
b11000101000 4
b11000101000 2"
b110 >
b110 0"
b110 =
b11100 O
b11100 9"
b11100 :"
b100000001100010100001000011001100000000000000000000000000011000 ^
b100000001100010100001000011001100000000000000000000000000011000 )"
b1000000011000101000010000110011 %
b1000000011000101000010000110011 ;
b1000000011000101000010000110011 `"
b110 _"
b11000101000001110110011 :
b10000 h
b0 P
b0 (
b0 -
b0 0
b0 R
b0 Q
b10000000000011000010011 E
b100 F
b1100 C
b1100 ?"
b1000 D
b11100 7"
b11000 )
b11000 M
b11000 8"
b11000 <"
b1100010100000111011001100000000000000000000000000010100 ]
b1100010100000111011001100000000000000000000000000010100 +"
b100110000001zz000000110100000000000000000000000000000000000000000000000000000000000000000000000000000000000000000000000000000000000000000000000000000000000000000010000 a
b100110000001zz000000110100000000000000000000000000000000000000000000000000000000000000000000000000000000000000000000000000000000000000000000000000000000000000000010000 '"
b10011000000000000100000000000000000000000000000000000000000000000000000000000000000000000000000000000000000000000001100 q
b10011000000000000100000000000000000000000000000000000000000000000000000000000000000000000000000000000000000000000001100 #"
b10000000000011000010011001xxxxxxxxxxxxxxxxxxxxxxxxxxxxxxxx000000000000000000000000000001000110000000000000000000000000000001000 T
b10000000000011000010011001xxxxxxxxxxxxxxxxxxxxxxxxxxxxxxxx000000000000000000000000000001000110000000000000000000000000000001000 /"
1;"
1("
1$"
1~
1,"
0!
#105000
b1011 #
0;"
0("
0$"
0~
0,"
1!
#110000
b11111111111111111111000000000000 w
b11111111111111111111000000000000 F"
0A
b10010001101000100000000000000 @
b10010001101000100000000000000 G"
b11111111111111111111000000000000 |
b10010001101000101000000000000 /
b10010001101000101000000000000 D"
b10010001101000101000000000000 {
b0 z
b0 @"
b100 y
b100 ^"
0M"
1U"
b10000000110001010000100001100110000000zz000001000111111111111111111111000000000000000100100011010001010000000000000000000000000000000000000000000000110001010100000000000000000000000000000011000 b
b10000000110001010000100001100110000000zz000001000111111111111111111111000000000000000100100011010001010000000000000000000000000000000000000000000000110001010100000000000000000000000000000011000 %"
b10100001000000011 9
b1000000100 ?
b10000001000 5
b10000001000 1"
b11000101000001110110011000110000000100010010001101000100000000000000111111111111111111110000000000000011100000000000000000000000000010100 r
b11000101000001110110011000110000000100010010001101000100000000000000111111111111111111110000000000000011100000000000000000000000000010100 !"
b10011001xxxxxxxxxxxxxxxxxxxxxxxxxxxxxxxx000000000000000000000000000000000000000000000000000000000000000010000 U
b10011001xxxxxxxxxxxxxxxxxxxxxxxxxxxxxxxx000000000000000000000000000000000000000000000000000000000000000010000 -"
b1000000011000101000 \
b10000000110 [
b1000 8
b100000 c
b100000 I"
b1000000011000101000 4
b1000000011000101000 2"
b10000000110 >
b10000000110 0"
b100000 O
b100000 9"
b100000 :"
b1100010110001001011001100000000000000000000000000011100 ^
b1100010110001001011001100000000000000000000000000011100 )"
b11000101100010010110011 %
b11000101100010010110011 ;
b11000101100010010110011 `"
b111 _"
b1000000011000101000010000110011 :
b10100 h
0t
b11111111111111111111000000000000 l
b10010001101000101000000000000 m
b110 e
b101 f
b111 g
b10011 E
b0 F
b0 C
b0 ?"
b1100 D
b100000 7"
b11100 )
b11100 M
b11100 8"
b11100 <"
b100000001100010100001000011001100000000000000000000000000011000 ]
b100000001100010100001000011001100000000000000000000000000011000 +"
b110001010000011101100110000000zz000000110111111111111111111111000000000000000100100011010001010000000000000000000000000000000000000000000000110001010011100000000000000000000000000010100 a
b110001010000011101100110000000zz000000110111111111111111111111000000000000000100100011010001010000000000000000000000000000000000000000000000110001010011100000000000000000000000000010100 '"
b10011000000000000100000000000000000000000000000000000000000000000000000000000000000000000000000000000000000000000010000 q
b10011000000000000100000000000000000000000000000000000000000000000000000000000000000000000000000000000000000000000010000 #"
b10011001xxxxxxxxxxxxxxxxxxxxxxxxxxxxxxxx000000000000000000000000000000000000000000000000000000000000000001100 T
b10011001xxxxxxxxxxxxxxxxxxxxxxxxxxxxxxxx000000000000000000000000000000000000000000000000000000000000000001100 /"
1;"
1("
1$"
1~
1,"
0!
#115000
b1100 #
0;"
0("
0$"
0~
0,"
1!
#120000
b11111111111111111111000000000000 '
b11111111111111111111000000000000 ,
b11111111111111111111000000000000 2
b11111111111111111111000000000000 }
1W"
b1100 y
b1100 ^"
0U"
b110001011000100101100110000000zz000011000111111111111111111111000000000000000100100011010001010000000000000000000000000000000000000000000000110001010100100000000000000000000000000011100 b
b110001011000100101100110000000zz000011000111111111111111111111000000000000000100100011010001010000000000000000000000000000000000000000000000110001010100100000000000000000000000000011100 %"
b10110000000000011 9
b10000000100 ?
b1001 5
b1001 1"
b1000000011000101000010000110011000110000000100010010001101000110000000000000111111111111111111110000000000000100000000000000000000000000000011000 r
b1000000011000101000010000110011000110000000100010010001101000110000000000000111111111111111111110000000000000100000000000000000000000000000011000 !"
b11000101000001110110011001xxxxxxxxxxxxxxxxxxxxxxxxxxxxxxxx000100100011010001000000000000000011100000000000000000000000000010100 U
b11000101000001110110011001xxxxxxxxxxxxxxxxxxxxxxxxxxxxxxxx000100100011010001000000000000000011100000000000000000000000000010100 -"
b11000101100 \
b110 [
b1001 8
b100 d
b100 H"
b0 c
b0 I"
b11000101100 4
b11000101100 2"
b110 >
b110 0"
b10010001101000110000000000000 @
b10010001101000110000000000000 G"
b100100 O
b100100 9"
b100100 :"
b1100010111001010011001100000000000000000000000000100000 ^
b1100010111001010011001100000000000000000000000000100000 )"
b11000101110010100110011 %
b11000101110010100110011 ;
b11000101110010100110011 `"
b1000 _"
b11000101100010010110011 :
b11000 h
b100 u
b100 E"
b1000 g
b110 P
b10010001101000100000000000000 (
b10010001101000100000000000000 -
b10010001101000100000000000000 0
b10010001101000100000000000000 R
b11111111111111111111000000000000 W
b111 Q
b10000 D
b100100 7"
b100000 )
b100000 M
b100000 8"
b100000 <"
b1100010110001001011001100000000000000000000000000011100 ]
b1100010110001001011001100000000000000000000000000011100 +"
b10000000110001010000100001100110000000zz000001000111111111111111111111000000000000000100100011010001010000000000000000000000000000000000000000000000110001010100000000000000000000000000000011000 a
b10000000110001010000100001100110000000zz000001000111111111111111111111000000000000000100100011010001010000000000000000000000000000000000000000000000110001010100000000000000000000000000000011000 '"
b11000101000001110110011000110000000100010010001101000100000000000000111111111111111111110000000000000011100000000000000000000000000010100 q
b11000101000001110110011000110000000100010010001101000100000000000000111111111111111111110000000000000011100000000000000000000000000010100 #"
b10011001xxxxxxxxxxxxxxxxxxxxxxxxxxxxxxxx000000000000000000000000000000000000000000000000000000000000000010000 T
b10011001xxxxxxxxxxxxxxxxxxxxxxxxxxxxxxxx000000000000000000000000000000000000000000000000000000000000000010000 /"
1;"
1("
1$"
1~
1,"
0!
#125000
b1101 #
0;"
0("
0$"
0~
0,"
1!
